"Region","Type","MeanFrequency","Range","ESC","ESCRange","IPSC","IPSCRange","Delta","DeltaRange","Pvalue"
"1p36.33-1p13.3","Loss","0.63"," (0.52, 0.98)","0.63"," (0.38, 1.51)","0.63"," (0.55, 0.86)","0.01"," (-0.17, 0.65)",0.123376403985033
"1p36.33-1p11.1","Gain","1.40"," (1.32, 1.43)","2.71"," (2.45, 2.73)","1.11"," (1.07, 1.14)","1.60"," (1.38, 1.66)",0.00037215323059787
"1p34.1-1p34.1","Fusion","0.50"," (0.50, 0.50)","0.00"," (0.00, 0.00)","0.61"," (0.61, 0.61)","-0.61"," (-0.61, -0.61)",0.0290918399738743
"1q42.11-1q44","Loss","0.59"," (0.55, 0.69)","0.83"," (0.56, 0.94)","0.53"," (0.46, 0.63)","0.30"," (-0.07, 0.48)",0.18415561589067
"1q11-1q44","Gain","6.07"," (1.83, 7.42)","8.97"," (3.30, 10.64)","5.43"," (1.50, 6.70)","3.55"," (1.80, 4.11)",2.69491760472149e-05
"1q12-1q21.3","Fusion","2.21"," (2.00, 2.83)","2.59"," (2.26, 3.58)","2.12"," (1.94, 2.66)","0.47"," (0.32, 0.92)",0.0435461261882649
"1q25.1-1q25.3","Fusion","0.85"," (0.85, 0.86)","0.47"," (0.47, 0.47)","0.94"," (0.93, 0.95)","-0.47"," (-0.48, -0.46)",0.0435461261882649
"1q32.11-1q32.3","Fusion","1.88"," (1.58, 2.05)","2.56"," (2.45, 2.64)","1.73"," (1.39, 1.92)","0.84"," (0.72, 1.06)",0.0435461261882649
"1q42.11-1q42.3","Fusion","0.86"," (0.67, 0.96)","1.45"," (1.04, 1.60)","0.73"," (0.59, 0.82)","0.72"," (0.45, 0.80)",0.0435461261882649
"2q24.1-2q24.3","Loss","0.19"," (0.19, 0.19)","0.56"," (0.56, 0.56)","0.11"," (0.11, 0.11)","0.45"," (0.45, 0.45)",0.00422840089848958
"2q32.1-2q32.3","Loss","0.20"," (0.17, 0.21)","0.56"," (0.56, 0.56)","0.11"," (0.08, 0.13)","0.45"," (0.43, 0.48)",0.00422840089848958
"2q24.1-2q24.3","Fusion","0.10"," (0.09, 0.12)","0.47"," (0.47, 0.47)","0.01"," (0.00, 0.04)","0.46"," (0.43, 0.47)",0.000783141678280181
"2q32.1-2q32.1","Fusion","0.09"," (0.09, 0.09)","0.38"," (0.38, 0.38)","0.02"," (0.02, 0.02)","0.36"," (0.36, 0.36)",0.000783141678280181
"2q32.3-2q32.3","Fusion","0.09"," (0.09, 0.09)","0.38"," (0.38, 0.38)","0.02"," (0.02, 0.02)","0.36"," (0.36, 0.36)",0.000783141678280181
"3p25.3-3p25.1","Gain","0.53"," (0.53, 0.53)","0.00"," (0.00, 0.00)","0.65"," (0.65, 0.65)","-0.65"," (-0.65, -0.65)",0.0198261722263496
"3p25.3-3p25.1","Fusion","0.59"," (0.59, 0.59)","0.00"," (0.00, 0.00)","0.72"," (0.72, 0.72)","-0.72"," (-0.72, -0.72)",0.0135632170201733
"6p24-6p23","Loss","0.24"," (0.24, 0.24)","0.66"," (0.66, 0.66)","0.15"," (0.15, 0.15)","0.51"," (0.51, 0.51)",0.0089289489504673
"7p21.3-7p11.1","Loss","0.18"," (0.17, 0.19)","0.56"," (0.56, 0.56)","0.09"," (0.08, 0.11)","0.47"," (0.45, 0.48)",0.00422840089848958
"7p22.3-7p11.1","Gain","0.53"," (0.42, 0.59)","0.85"," (0.85, 0.85)","0.45"," (0.32, 0.53)","0.40"," (0.32, 0.53)",0.0464222046620063
"7q11.1-7q36.3","Loss","0.70"," (0.58, 0.81)","1.68"," (1.41, 1.69)","0.48"," (0.40, 0.61)","1.20"," (1.01, 1.25)",0.000139505138830666
"8p23.3-8p11.1","Gain","2.89"," (2.85, 2.89)","5.37"," (5.37, 5.37)","2.34"," (2.28, 2.34)","3.04"," (3.03, 3.09)",1.03968584766809e-06
"8q11.1-8q24.3","Gain","2.89"," (2.85, 2.93)","5.37"," (5.37, 5.37)","2.33"," (2.28, 2.38)","3.04"," (2.99, 3.09)",1.03968584766809e-06
"9p21.3-9p13.1","Gain","0.09"," (0.09, 0.10)","0.38"," (0.38, 0.38)","0.03"," (0.02, 0.04)","0.35"," (0.34, 0.36)",0.0200589307422786
"10p15.3-10p13","Loss","0.72"," (0.69, 0.74)","0.85"," (0.85, 0.85)","0.69"," (0.65, 0.72)","0.16"," (0.13, 0.20)",0.590570074528645
"12p13.33-12p11.1","Gain","9.09"," (8.99, 9.21)","9.88"," (9.79, 9.89)","8.91"," (8.81, 9.06)","0.97"," (0.83, 1.08)",0.3245462326628
"12q11-12q24.33","Loss","1.18"," (1.12, 1.28)","1.12"," (1.04, 1.13)","1.19"," (1.14, 1.31)","-0.06"," (-0.18, -0.01)",0.742413287198111
"12q11-12q24.33","Gain","8.96"," (8.94, 8.96)","9.88"," (9.79, 9.89)","8.75"," (8.75, 8.75)","1.13"," (1.04, 1.14)",0.293107473187368
"13p13-13p11.1","Loss","0.71"," (0.55, 0.81)","0.23"," (0.09, 0.28)","0.81"," (0.65, 0.93)","-0.58"," (-0.65, -0.56)",0.0581185364059974
"13q12.11-13q12.13","Fusion","0.43"," (0.43, 0.43)","0.00"," (0.00, 0.00)","0.53"," (0.53, 0.53)","-0.53"," (-0.53, -0.53)",0.042890004938238
"13q14.3-13q14.3","Fusion","0.50"," (0.50, 0.50)","0.28"," (0.28, 0.28)","0.55"," (0.55, 0.55)","-0.27"," (-0.27, -0.27)",0.042890004938238
"14p13-14p11.2","Loss","0.57"," (0.56, 0.59)","0.09"," (0.09, 0.09)","0.68"," (0.67, 0.70)","-0.59"," (-0.61, -0.58)",0.0482792334820658
"14p13-14p11.1","Gain","0.60"," (0.60, 0.60)","1.22"," (1.22, 1.22)","0.46"," (0.46, 0.46)","0.76"," (0.76, 0.76)",0.0230895338635252
"14q11.1-14q32.33","Gain","0.72"," (0.60, 0.75)","1.22"," (1.22, 1.22)","0.61"," (0.46, 0.65)","0.61"," (0.57, 0.76)",0.0230895338635252
"15p13-15p11.2","Loss","1.09"," (1.06, 1.14)","1.25"," (1.22, 1.32)","1.05"," (1.03, 1.10)","0.20"," (0.19, 0.22)",0.731991534201166
"15p11.2-15p11.2","Fusion","0.71"," (0.71, 0.71)","1.13"," (1.13, 1.13)","0.61"," (0.61, 0.61)","0.52"," (0.52, 0.52)",0.161865088152654
"16q24.3-16q24.3","Loss","0.51"," (0.51, 0.51)","0.09"," (0.09, 0.09)","0.61"," (0.61, 0.61)","-0.52"," (-0.52, -0.52)",0.0843480991557232
"16q24.1-16q24.3","Fusion","0.59"," (0.58, 0.60)","0.28"," (0.28, 0.28)","0.66"," (0.65, 0.67)","-0.38"," (-0.39, -0.37)",0.277213112283641
"17q11.2-17q25.3","Gain","0.91"," (0.53, 0.98)","1.84"," (1.13, 1.98)","0.70"," (0.40, 0.76)","1.15"," (0.73, 1.33)",0.00048959536629441
"17q21.31-17q21.33","Fusion","0.53"," (0.53, 0.53)","0.85"," (0.85, 0.85)","0.46"," (0.46, 0.46)","0.39"," (0.39, 0.39)",0.18415561589067
"18p11.32-18p11.1","Loss","0.50"," (0.45, 0.52)","1.16"," (1.13, 1.22)","0.35"," (0.30, 0.36)","0.81"," (0.77, 0.86)",0.00440897126402342
"18q11.1-18q23","Loss","1.37"," (0.38, 2.25)","1.73"," (1.13, 2.35)","1.29"," (0.21, 2.23)","0.45"," (-0.33, 1.12)",0.000134037417507527
"18q21.1-18q21.1","Fusion","0.70"," (0.70, 0.70)","0.85"," (0.85, 0.85)","0.67"," (0.67, 0.67)","0.18"," (0.18, 0.18)",0.590570074528645
"20p13-20p11.1","Loss","9.58"," (9.35, 9.99)","9.71"," (9.60, 9.89)","9.55"," (9.29, 10.01)","0.16"," (-0.12, 0.31)",0.826471758120256
"20p13-20p11.1","Gain","2.02"," (1.93, 2.03)","2.17"," (2.17, 2.17)","1.99"," (1.88, 2.00)","0.18"," (0.17, 0.29)",0.597394406628245
"20p13-20p13","Fusion","0.64"," (0.64, 0.64)","0.28"," (0.28, 0.28)","0.72"," (0.72, 0.72)","-0.44"," (-0.44, -0.44)",0.202607221548304
"20q11.21-20q13.33","Loss","0.32"," (0.28, 0.40)","0.85"," (0.85, 0.85)","0.20"," (0.15, 0.30)","0.65"," (0.55, 0.70)",0.000756692083004529
"20q11.1-20q13.33","Gain","12.03"," (11.39, 13.89)","12.46"," (11.77, 14.31)","11.94"," (11.30, 13.80)","0.53"," (0.47, 0.54)",0.667467170102788
"20q11.21-20q11.23","Fusion","2.79"," (2.77, 2.79)","3.39"," (3.39, 3.39)","2.65"," (2.63, 2.66)","0.74"," (0.73, 0.76)",0.247262769001424
"21p13-21p11.2","Loss","0.69"," (0.65, 0.74)","0.81"," (0.75, 0.94)","0.67"," (0.63, 0.70)","0.15"," (0.08, 0.24)",0.672129569034001
"21p13-21p11.1","Gain","1.56"," (1.56, 1.56)","0.28"," (0.28, 0.28)","1.85"," (1.85, 1.85)","-1.57"," (-1.57, -1.57)",0.00065529259817217
"21q22.11-21q22.3","Loss","0.41"," (0.40, 0.43)","0.85"," (0.85, 0.85)","0.31"," (0.30, 0.34)","0.54"," (0.51, 0.55)",0.0290918399738743
"21q11.1-21q22.3","Gain","1.60"," (1.56, 1.61)","0.36"," (0.28, 0.38)","1.88"," (1.85, 1.88)","-1.52"," (-1.60, -1.50)",0.00065529259817217
"21q22.11-21q22.3","Fusion","0.38"," (0.34, 0.39)","0.94"," (0.94, 0.94)","0.26"," (0.21, 0.27)","0.68"," (0.67, 0.73)",0.00454429415616166
"22p13-22p11.2","Loss","0.63"," (0.62, 0.63)","0.47"," (0.47, 0.47)","0.66"," (0.65, 0.67)","-0.19"," (-0.20, -0.18)",0.728217375352447
"Xp22.33-Xp11.21","Loss","0.57"," (0.50, 0.71)","0.37"," (0.28, 0.75)","0.61"," (0.55, 0.70)","-0.23"," (-0.35, 0.05)",0.323421513331668
"Xp22.33-Xp11.1","Gain","1.57"," (1.46, 1.63)","1.69"," (1.69, 1.69)","1.55"," (1.41, 1.62)","0.14"," (0.07, 0.28)",0.596059201345263
"Xp22.33-Xp22.31","Fusion","0.13"," (0.13, 0.13)","0.47"," (0.47, 0.47)","0.06"," (0.06, 0.06)","0.41"," (0.41, 0.41)",0.01628343898984
"Xq13.1-Xq28","Loss","0.65"," (0.55, 0.79)","0.50"," (0.28, 0.85)","0.69"," (0.61, 0.78)","-0.19"," (-0.34, 0.09)",0.363466277662233
"Xq11.1-Xq28","Gain","1.51"," (1.48, 1.52)","1.69"," (1.69, 1.69)","1.47"," (1.43, 1.48)","0.22"," (0.21, 0.26)",0.652273607053211
"Yp11.32-Yp11.1","Loss","1.02"," (0.97, 1.08)","0.28"," (0.28, 0.28)","1.19"," (1.12, 1.26)","-0.91"," (-0.98, -0.84)",0.0144018225188898
"Yp11.32-Yp11.1","Gain","1.11"," (1.11, 1.11)","0.28"," (0.28, 0.28)","1.29"," (1.29, 1.29)","-1.01"," (-1.01, -1.01)",0.0121541077649566
"Yq11.1-Yq12","Loss","1.08"," (0.98, 1.47)","0.42"," (0.28, 0.47)","1.23"," (1.14, 1.69)","-0.81"," (-1.22, -0.67)",0.0082487646922326
"Yq11.1-Yq12","Gain","1.08"," (1.08, 1.08)","0.28"," (0.28, 0.28)","1.26"," (1.26, 1.26)","-0.98"," (-0.98, -0.98)",0.0144018225188898
"Yq12-Yq12","Fusion","0.50"," (0.50, 0.50)","0.19"," (0.19, 0.19)","0.57"," (0.57, 0.57)","-0.38"," (-0.38, -0.38)",0.232118117811045
