"","Blinded.ID","Clone_Code","Receive.Date","Passage","Cell.Type","G.banded.Karyotype.Results","State"
"WC264.K1",264,"46,XY,add(2)(q21.1)[3]","2009-06-08","30","ESC","46,XY,add(2)(q21.1)[3]/46,XY[17]","Abnormal"
"WC437.K1",437,"46,XX,del(2)(q24q32)[2]","2009-09-04","72","ESC","46,XX,del(2)(q24q32)[2]/46,XX[17]","Abnormal"
"WC484.K1",484,"46,XX,del(2)(q24q32)[2]","2009-09-28","77","ESC","46,XX,del(2)(q24q32)[2]/46,XX[18]","Abnormal"
"WC531.K1",531,"46,XX,del(2)(q24q32)[7]","2009-10-27","82","ESC","46,XX,del(2)(q24q32)[7]/47,XX,del(2)(q24q32),+12[1]/47,XX,+12[1]/46,XX[11]","Abnormal"
"WC531.K4",531,"47,XX,del(2)(q24q32),+12[1]","2009-10-27","82","ESC","46,XX,del(2)(q24q32)[7]/47,XX,del(2)(q24q32),+12[1]/47,XX,+12[1]/46,XX[11]","Abnormal"
"WC561.K1",561,"46,XX,del(2)(q24q33)[16]","2009-11-18","87","ESC","46,XX,del(2)(q24q33)[16]/46,XX[4]","Abnormal"
"WC1561.K1",1561,"81~89,XXYY,-2,-3,der(6)t(6;9)(p10;q10),-9,add(9)(q22),-10,-19,-20,-22,+1~3mar[cp8]","2011-10-05","17","IPSC","81~89,XXYY,-2,-3,der(6)t(6;9)(p10;q10),-9,add(9)(q22),-10,-19,-20,-22,+1~3mar[cp8]/ 46,XY[12]","Abnormal"
"WC3884.K1",3884,"46,XX,der(12)t(2;12)(q23;p13)","2013-09-17","11","IPSC","46,XX,der(12)t(2;12)(q23;p13)","Abnormal"
"WC5413.K1",5413,"46,XX,del(2)(q23q31)[20]","2014-12-10","7","IPSC","46,XX,del(2)(q23q31)[20]","Abnormal"
"WC5416.K1",5416,"46,XX,del(2)(q23q31)[20]","2014-12-10","7","IPSC","46,XX,del(2)(q23q31)[20]","Abnormal"
"WC6211.K2",6211,"47,XY,+2[3]","2015-06-17","X+18","ESC","47,XY,+2[3]/46,XY[16]","Abnormal"
"WC6215.K1",6215,"46,XY,del(2)(q23q31),t(3;15)(q26.2;q24),del(4)(q31.1q33),del(5)(q22q23.2),t(7;17)(p21;p11.2),der(13)t(4;13)(q28;p11.2)[20]","2015-06-19","8","IPSC","46,XY,del(2)(q23q31),t(3;15)(q26.2;q24),del(4)(q31.1q33),del(5)(q22q23.2),t(7;17)(p21;p11.2),der(13)t(4;13)(q28;p11.2)[20]","Abnormal"
"WC6301.K1",6301,"46,XX,der(2)t(2;15)(p25.1;q15)inv(2)(p21q33)inv(2)(q13q24.2)del(2)(q31q33),der(15)t(2;15)[20]","2015-07-02","12+7","IPSC","46,XX,der(2)t(2;15)(p25.1;q15)inv(2)(p21q33)inv(2)(q13q24.2)del(2)(q31q33),der(15)t(2;15)[20]","Abnormal"
"WC6490.K2",6490,"47,XY,+2[5]","2015-08-19","X+14","ESC","47,XY,+2[5]/46,XY[13]","Abnormal"
"WC9439.K2",9439,"47,XY,+2,t(4;12;3)(q21;p13;p25)[17]","2016-11-28","33","IPSC","46,XY,t(4;12;3)(q21;p13;p25)[3]/47,XY,+2,t(4;12;3)(q21;p13;p25)[17]","Abnormal"
"WC11157.K1",11157,"46,XX,t(2;19)(q32.2;q13.3)[19]","2017-07-12","16","IPSC","46,XX,t(2;19)(q32.2;q13.3)[19]","Abnormal"
"WC11392.K1",11392,"46,XX,t(2;12)(q24.2;q13.1)[20]","2017-08-09","30,6,4","IPSC","46,XX,t(2;12)(q24.2;q13.1)[20]","Abnormal"
"WC12021.K2",12021,"48,XX,+2,r(2)","2017-10-16","24","IPSC","47,XX,+r[16]/48,XX,+2r[2]/46,XX[2]","Abnormal"
"WC12193.K1",12193,"46,XX,del(2)(q31q32.2)[20]","2017-11-08","3","IPSC","46,XX,del(2)(q31q32.2)[20]","Abnormal"
"WC12194.K1",12194,"46,XX,del(2)(q31q32)[20]","2017-11-08","3","IPSC","46,XX,del(2)(q31q32)[20]","Abnormal"
"WC12195.K1",12195,"46,XX,del(2)(q31q32.2)[20]","2017-11-08","3","IPSC","46,XX,del(2)(q31q32.2)[20]","Abnormal"
"WC13696.K1",13696,"46,XY,add(2)(q23)[6]","2018-05-18","8","IPSC","46,XY,add(2)(q23)[6]/46,XY[14]","Abnormal"
