"","Blinded.ID","Clone_Code","Receive.Date","Passage","Cell.Type","G.banded.Karyotype.Results","State"
"WC712.K1",712,"46~49,XY,+3,+8[cp5]","2010-02-28","19","IPSC","46~49,XY,+3,+8[cp5]/46,XY[35]","Abnormal"
"WC1154.K1",1154,"46,XX,dup(3)(p25p25)[20]","2010-10-22","55","IPSC","46,XX,dup(3)(p25p25)[20]","Abnormal"
"WC1184.K1",1184,"46,XX,dup(3)(p25p25)[20]","2010-11-01","49","IPSC","46,XX,dup(3)(p25p25)[20]","Abnormal"
"WC1561.K1",1561,"81~89,XXYY,-2,-3,der(6)t(6;9)(p10;q10),-9,add(9)(q22),-10,-19,-20,-22,+1~3mar[cp8]","2011-10-05","17","IPSC","81~89,XXYY,-2,-3,der(6)t(6;9)(p10;q10),-9,add(9)(q22),-10,-19,-20,-22,+1~3mar[cp8]/ 46,XY[12]","Abnormal"
"WC1811.K1",1811,"46,XX,dup(3)(p25p25)[17]","2012-02-13","60","IPSC","46,XX,dup(3)(p25p25)[17]/46,XX[3]","Abnormal"
"WC1870.K1",1870,"46,XX,dup(3)(p25p25)[8]","2012-02-28","64","IPSC","46,XX,dup(3)(p25p25)[8]/46,XX[12]","Abnormal"
"WC2087.K1",2087,"46,XY,t(3;21)(p25;q22.3)[20]","2012-04-13","8","IPSC","46,XY,t(3;21)(p25;q22.3)[20]","Abnormal"
"WC2088.K1",2088,"46,XY,t(3;21)(p25;q22.3)[20]","2012-04-13","9","IPSC","46,XY,t(3;21)(p25;q22.3)[20]","Abnormal"
"WC2122.K1",2122,"46,XX,dup(3)(p25p25)[17]","2012-04-24","50","IPSC","46,XX,dup(3)(p25p25)[17]/46,XX,?dup(3)(p25p25)[3]","Abnormal"
"WC2182.K1",2182,"46,XX,dup(3)(p25p25)[20]","2012-05-03","40","IPSC","46,XX,dup(3)(p25p25)[20]","Abnormal"
"WC2210.K1",2210,"46,XX,dup(3)(p25p25)[15]","2012-05-08","53","IPSC","46,XX,dup(3)(p25p25)[15]/46,XX[5]","Abnormal"
"WC2267.K1",2267,"46,XX,dup(3)(p25p25)[16]","2012-05-25","40","IPSC","46,XX,dup(3)(p25p25)[16]/46,XX[4]","Abnormal"
"WC2288.K1",2288,"46,XX,dup(3)(p25p25)[16]","2012-05-31","38","IPSC","46,XX,dup(3)(p25p25)[16]/46,XX[3]","Abnormal"
"WC2454.K2",2454,"90,XXYY,+i(X)(q10),-3,-6,-22","2012-07-19","22","IPSC","46,XY/90,XXYY,+i(X)(q10),-3,-6,-22","Abnormal"
"WC2496.K1",2496,"46,XY,+3[18]","2012-07-24","26","IPSC","46,XY,+3[18]/46,XY[2]","Abnormal"
"WC3199.K1",3199,"52,XY,+X,+3,+4,+12,+20,+21[4]","2013-03-06","16","IPSC","52,XY,+X,+3,+4,+12,+20,+21[4]/46,XY[12]","Abnormal"
"WC3235.K1",3235,"46,XY,del(3)(p23p25)[11]","2013-03-15","2-Jul","IPSC","46,XY,del(3)(p23p25)[11]/46,XY[9]","Abnormal"
"WC3417.K1",3417,"46,XY,del(3)(p23p25)[16]","2013-04-25","39/9/4","IPSC","46,XY,del(3)(p23p25)[16]/46,XY[4]","Abnormal"
"WC3794.K1",3794,"46,XX,der(3)t(3;7)(p25;p13)[11]","2013-08-20","6","IPSC","46,XX,der(3)t(3;7)(p25;p13)[11]/46,XX[9]","Abnormal"
"WC4037.K1",4037,"45~46,XY,idic(3)(p26)[cp2]","2013-10-16","35","IPSC","45~46,XY,idic(3)(p26)[cp2]/46,XY[37]","Abnormal"
"WC4633.K1",4633,"46,XX,der(3)t(2;3)(p13;p25)[20]","2014-04-14","11","IPSC","46,XX,der(3)t(2;3)(p13;p25)[20]","Abnormal"
"WC5050.K1",5050,"46,XX,dup(3)(p25p25)[32]","2014-08-15","65/23","IPSC","46,XX,dup(3)(p25p25)[32]/46,XX[6]","Abnormal"
"WC5349.K1",5349,"46,XX,dup(3)(p25p25)[16]","2014-11-21","63(49)-14/1","IPSC","46,XX,dup(3)(p25p25)[16]/46,XX[4]","Abnormal"
"WC5448.K1",5448,"46,XX,der(3)t(3;13)(p25;q14)[2]","2014-12-16","7","IPSC","46,XX,der(3)t(3;13)(p25;q14)[2]/46,XX[18]","Abnormal"
"WC6348.K1",6348,"46,XX,dup(3)(p25p25)[16]","2015-07-17","64(50)/15","IPSC","46,XX,dup(3)(p25p25)[16]/46,XX[4]_x000D_","Abnormal"
"WC7350.K1",7350,"46,XX,der(3)t(1;3)(q12;p25)[19]","2015-12-23","8","IPSC","46,XX,der(3)t(1;3)(q12;p25)[19]","Abnormal"
"WC7358.K1",7358,"46,XY,der(7)t(3;7)(p21;q36)[19]","2015-12-23","9","IPSC","46,XY,der(7)t(3;7)(p21;q36)[19]/46,XY[1]","Abnormal"
"WC7381.K1",7381,"46,XY,t(2;3)(q31;p25)[9]","2015-12-30","8","IPSC","46,XY,t(2;3)(q31;p25)[9]/46,XY,der(14)t(1;14)(q12;p11.2)[9]/47,XY,+Y,der(14)t(1;14)(q12;p11.2)[2]","Abnormal"
"WC7431.K1",7431,"47,XX,+3[16]","2016-01-15","20","IPSC","47,XX,+3[16]/48,XX,+1,+3[3]","Abnormal"
"WC7431.K2",7431,"48,XX,+1,+3[3]","2016-01-15","20","IPSC","47,XX,+3[16]/48,XX,+1,+3[3]","Abnormal"
"WC7653.K1",7653,"47,XY,+r(3)","2016-02-16","25","IPSC","47,XY,+r[3]/46,XY[17]","Abnormal"
"WC9234.K1",9234,"46,XX,dup(3)(p25p25)[6]","2016-10-24","57/17/8","IPSC","46,XX,dup(3)(p25p25)[6]/46,XX,dup(3)(p25p25),?dup(20)(q11.2q11.2)[14]","Abnormal"
"WC9234.K2",9234,"46,XX,dup(3)(p25p25),?dup(20)(q11.2q11.2)[14]","2016-10-24","57/17/8","IPSC","46,XX,dup(3)(p25p25)[6]/46,XX,dup(3)(p25p25),?dup(20)(q11.2q11.2)[14]","Abnormal"
"WC9235.K1",9235,"46,XX,dup(3)(p25p25)[11]","2016-10-24","57/17/8","IPSC","46,XX,dup(3)(p25p25)[11]/46,XX,dup(3)(p25p25),?dup(20)(q11.2q11.2)[6]/46,XX,?dup(20)(p11.2p11.2)[2]/46,XX[1]","Abnormal"
"WC9235.K2",9235,"46,XX,dup(3)(p25p25),?dup(20)(q11.2q11.2)[6]","2016-10-24","57/17/8","IPSC","46,XX,dup(3)(p25p25)[11]/46,XX,dup(3)(p25p25),?dup(20)(q11.2q11.2)[6]/46,XX,?dup(20)(p11.2p11.2)[2]/46,XX[1]","Abnormal"
"WC9236.K1",9236,"46,XX,dup(3)(p25p25)[4]","2016-10-24","57/17/8","IPSC","46,XX,dup(3)(p25p25)[4]/46,XX,dup(3)(p25p25),?dup(20)(q11.2q11.2)[16]","Abnormal"
"WC9236.K2",9236,"46,XX,dup(3)(p25p25),?dup(20)(q11.2q11.2)[16]","2016-10-24","57/17/8","IPSC","46,XX,dup(3)(p25p25)[4]/46,XX,dup(3)(p25p25),?dup(20)(q11.2q11.2)[16]","Abnormal"
"WC9237.K1",9237,"46,XX,dup(3)(p25p25)[6]","2016-10-24","57/17/8","IPSC","46,XX,dup(3)(p25p25)[6]/46,XX,dup(3)(p25p25),?dup(20)(q11.2q11.2)[14]","Abnormal"
"WC9237.K2",9237,"46,XX,dup(3)(p25p25),?dup(20)(q11.2q11.2)[14]","2016-10-24","57/17/8","IPSC","46,XX,dup(3)(p25p25)[6]/46,XX,dup(3)(p25p25),?dup(20)(q11.2q11.2)[14]","Abnormal"
"WC9255.K1",9255,"46,XX,dup(3)(p25p25)[7]","2016-10-26","57/17/8","IPSC","46,XX,dup(3)(p25p25)[7]/46,XX,dup(3)(p25p25),?dup(20)(q11.2q11.2)[13]","Abnormal"
"WC9255.K2",9255,"46,XX,dup(3)(p25p25),?dup(20)(q11.2q11.2)[13]","2016-10-26","57/17/8","IPSC","46,XX,dup(3)(p25p25)[7]/46,XX,dup(3)(p25p25),?dup(20)(q11.2q11.2)[13]","Abnormal"
"WC9439.K1",9439,"46,XY,t(4;12;3)(q21;p13;p25)[3]","2016-11-28","33","IPSC","46,XY,t(4;12;3)(q21;p13;p25)[3]/47,XY,+2,t(4;12;3)(q21;p13;p25)[17]","Abnormal"
"WC9439.K2",9439,"47,XY,+2,t(4;12;3)(q21;p13;p25)[17]","2016-11-28","33","IPSC","46,XY,t(4;12;3)(q21;p13;p25)[3]/47,XY,+2,t(4;12;3)(q21;p13;p25)[17]","Abnormal"
"WC9534.K1",9534,"46,XY,der(1)t(1;3)(q32;p23)[20]","2016-12-14","7","IPSC","46,XY,der(1)t(1;3)(q32;p23)[20]","Abnormal"
"WC10037.K2",10037,"46,XX,der(3)t(3;7)(p23;q11.2),t(5;14)(p13;q24)[15]","2017-03-01","6","IPSC","46,XX,t(5;14)(p13;q24)[5]/46,XX,der(3)t(3;7)(p23;q11.2),t(5;14)(p13;q24)[15]","Abnormal"
"WC13882.K1",13882,"46,XY,inv(3)(p21.3p25)[6]","2018-06-14","18","IPSC","46,XY,inv(3)(p21.3p25)[6]/46,XY[14]","Abnormal"
