"","Blinded.ID","Clone_Code","Receive.Date","Passage","Cell.Type","G.banded.Karyotype.Results","State"
"WC1427.K1",1427,"46,XY,-6,+mar[6]","2011-06-29","7","IPSC","46,XY,-6,+mar[6]/46~47,XY,add(6)(p22),+mar[cp2]/46,XY[1]","Abnormal"
"WC1427.K2",1427,"46~47,XY,add(6)(p22),+mar[cp2]","2011-06-29","7","IPSC","46,XY,-6,+mar[6]/46~47,XY,add(6)(p22),+mar[cp2]/46,XY[1]","Abnormal"
"WC1561.K1",1561,"81~89,XXYY,-2,-3,der(6)t(6;9)(p10;q10),-9,add(9)(q22),-10,-19,-20,-22,+1~3mar[cp8]","2011-10-05","17","IPSC","81~89,XXYY,-2,-3,der(6)t(6;9)(p10;q10),-9,add(9)(q22),-10,-19,-20,-22,+1~3mar[cp8]/ 46,XY[12]","Abnormal"
"WC2181.K1",2181,"48,XY,+6,add(6)(p?21.3),+12,add(12)(p11.2)[cp4]","2012-05-04","7","IPSC","48,XY,+6,add(6)(p?21.3),+12,add(12)(p11.2)[cp4]/46,XY[30]","Abnormal"
"WC2454.K2",2454,"90,XXYY,+i(X)(q10),-3,-6,-22","2012-07-19","22","IPSC","46,XY/90,XXYY,+i(X)(q10),-3,-6,-22","Abnormal"
"WC3063.K2",3063,"46,XX,del(6)(p23),add(20)(q11.2)[3]","2013-01-18","28","ESC","46,XX,add(20)(q11.2)[5]/ _x000D_
46,XX,der(10)t(10;17)(p13;q11.2)[2]/  _x000D_
46,XX,der(10)t(10;17)(p13;q11.2),add(20)(q11.2)[cp8]/ _x000D_
46,XX,del(6)(p23),add(20)(q11.2)[3]/_x000D_
46,XX[2]_x000D_
","Abnormal"
"WC3226.K1",3226,"46,XX,add(1)(p36.1),inv(1)(p12p36.1),t(3;5;10)(p23;q33.1;p11.2),del(6)(p22),t(7;15)(p22;q22)","2013-03-13","12","IPSC","46,XX,add(1)(p36.1),inv(1)(p12p36.1),t(3;5;10)(p23;q33.1;p11.2),del(6)(p22),t(7;15)(p22;q22)","Abnormal"
"WC3650.K1",3650,"46,XX,add(1)(p36.1),inv(1)(p12p36.1),t(3;5;10)(p23;q33.1;p11.2),del(6)(p22),t(7;15)(p22;q22)[20]","2013-07-11","9","IPSC","46,XX,add(1)(p36.1),inv(1)(p12p36.1),t(3;5;10)(p23;q33.1;p11.2),del(6)(p22),t(7;15)(p22;q22)[20]","Abnormal"
"WC5215.K1",5215,"46,XX,der(6)t(1;6)(q21;p21)[3]","2014-10-07","45","ESC","46,XX,der(6)t(1;6)(q21;p21)[3]/46,XX[17]","Abnormal"
"WC5656.K1",5656,"46,XX,t(1;7)(p36.1;q32),t(6;9)(p23;q22.1),inv(10)(q11.2q26.3),add(16)(p13.1)[20]","2015-02-12","18","IPSC","46,XX,t(1;7)(p36.1;q32),t(6;9)(p23;q22.1),inv(10)(q11.2q26.3),add(16)(p13.1)[20]","Abnormal"
"WC7249.K1",7249,"46,XY,del(6)(p23),dup(20)(q11.2q11.2)[5]","2015-12-08","47","ESC","46,XY,del(6)(p23)[10]/46,XY,del(6)(p23),dup(20)(q11.2q11.2)[5]/46,XY[2]","Abnormal"
"WC7249.K2",7249,"46,XY,del(6)(p23)[10]","2015-12-08","47","ESC","46,XY,del(6)(p23)[10]/46,XY,del(6)(p23),dup(20)(q11.2q11.2)[5]/46,XY[2]","Abnormal"
"WC7797.K1",7797,"46,XY,del(6)(p23)[5]","2016-03-11","29","ESC","46,XY,del(6)(p23)[5]/46,XY[15]","Abnormal"
"WC8526.K1",8526,"46,XY,del(6)(p23)[5]","2016-07-12","41","ESC","46,XY,del(6)(p23)[5]","Abnormal"
"WC8527.K1",8527,"46,XY,del(6)(p23)[3]","2016-07-12","41","ESC","46,XY,del(6)(p23)[3]/46,XY[2]","Abnormal"
"WC9444.K3",9444,"46,XY,del(6)(p23)[5]","2016-11-29","14","IPSC","46,XX,?dup(20)(q11.2q11.2)[6]/46,XX[8]/46,XY,del(6)(p23)[5]","Abnormal"
"WC10551.K3",10551,"47,X,add(X)(q26),+6,del(17)(p13),der(21)t(17;21)(q21;q22)[3]","2017-05-02","42","ESC","46,X,add(X)(q26),der(21)t(17;21)(q21;q22)[6]/_x000D_
46,X,add(X)(q26),del(17)(p13),der(21)t(17;21)(q21;q22) [11]/_x000D_
47,X,add(X)(q26),+6,del(17)(p13),der(21)t(17;21)(q21;q22)[3] ","Abnormal"
"WC13421.K1",13421,"46,XY,inv(6)(p23q22.2)[9]","2018-04-13","12","IPSC","46,XY,inv(6)(p23q22.2)[9]/46,XY,dup(1)(q21q42),inv(6)(p23q22.2)[11]","Abnormal"
"WC13421.K2",13421,"46,XY,dup(1)(q21q42),inv(6)(p23q22.2)[11]","2018-04-13","12","IPSC","46,XY,inv(6)(p23q22.2)[9]/46,XY,dup(1)(q21q42),inv(6)(p23q22.2)[11]","Abnormal"
"WC14248.K1",14248,"47,XX,+1,der(1)del(1)(p13.3p22.1)ins(1;?)(q31;?),der(1)t(1;6)(p36.1;p21.3),der(6)t(6;17)(q27;q11.2),dup(9)(p13p21)[20]","2018-08-09","17","ESC","47,XX,+1,der(1)del(1)(p13.3p22.1)ins(1;?)(q31;?),der(1)t(1;6)(p36.1;p21.3),der(6)t(6;17)(q27;q11.2),dup(9)(p13p21)[20]","Abnormal"
