"","Blinded.ID","Clone_Code","Receive.Date","Passage","Cell.Type","G.banded.Karyotype.Results","State"
"WC926.K2",926,"46,XY,add(7)(p22)[4]","2010-06-23","14","IPSC","46,XY,del(18)(q21.1q23)[16]/46,XY,add(7)(p22)[4]","Abnormal"
"WC962.K1",962,"46,XY,i(7)(p10),del(9)(q12)[5]","2010-07-13","14","ESC","46,XY,i(7)(p10)[8]/46,XY,i(7)(p10),del(9)(q12)[5]/46,XY[6]","Abnormal"
"WC962.K2",962,"46,XY,i(7)(p10)[8]","2010-07-13","14","ESC","46,XY,i(7)(p10)[8]/46,XY,i(7)(p10),del(9)(q12)[5]/46,XY[6]","Abnormal"
"WC964.K1",964,"46,XY,i(7)(p10),del(22)(q13)[2]","2010-07-16","13","ESC","46,XY,i(7)(p10)[5]/46,XY,i(7)(p10),del(22)(q13)[2]/46,XY(9)","Abnormal"
"WC964.K2",964,"46,XY,i(7)(p10)[5]","2010-07-16","13","ESC","46,XY,i(7)(p10)[5]/46,XY,i(7)(p10),del(22)(q13)[2]/46,XY(9)","Abnormal"
"WC973.K1",973,"46,XX,inv(7)(p15q36)[2]","2010-07-22","27","IPSC","46,XX,inv(7)(p15q36)[2]/46,XX[42]","Abnormal"
"WC1062.K1",1062,"46,XY,add(1)(q32),i(7)(p10),add(22)(q13)[10]","2010-08-30","25","ESC","46,XY,add(1)(q32),i(7)(p10),add(22)(q13)[10]","Abnormal"
"WC1387.K1",1387,"46,XY,i(7)(p10)[10]","2011-06-03","15","ESC","46,XY,i(7)(p10)[10]/46,XY[10]","Abnormal"
"WC1402.K1",1402,"46,XY,i(7)(p10)[19]","2011-06-16","17","ESC","46,XY,i(7)(p10)[19]/46,XY[1]","Abnormal"
"WC1507.K1",1507,"46,XX,t(1;7)(p36.1;q11.2),t(10;15)(q21.2;q26.1),t(14;20)(q32;p11.2)[20]","2011-08-25","13","IPSC","46,XX,t(1;7)(p36.1;q11.2),t(10;15)(q21.2;q26.1),t(14;20)(q32;p11.2)[20]","Abnormal"
"WC1523.K1",1523,"46,XY,i(7)(p10)[17]","2011-08-30","12","ESC","46,XY,i(7)(p10)[17]/46,XY[3]","Abnormal"
"WC1555.K1",1555,"46,XY,t(3;8)(q12;q13),t(5;19)(q31;p13.1),t(7;16)(q34;p13.1)","2011-09-28","10","IPSC","46,XY,t(3;8)(q12;q13),t(5;19)(q31;p13.1),t(7;16)(q34;p13.1)","Abnormal"
"WC1562.K2",1562,"46,XY,i(7)(p10)[5]","2011-10-05","23","IPSC","47,XY,+12[15]/46,XY,i(7)(p10)[5]","Abnormal"
"WC1604.K1",1604,"46,XY,der(2)t(2;13)(q33;q22),der(2)t(2;?2)(p13;?q33),t(7;17)(q22;q25),add(9)(q22),add(13)(q14),add(17)(q25)[20]","2011-10-26","11","IPSC","46,XY,der(2)t(2;13)(q33;q22),der(2)t(2;?2)(p13;?q33),t(7;17)(q22;q25),add(9)(q22),add(13)(q14), add(17)(q25)[20]","Abnormal"
"WC1632.K1",1632,"45,X,-Y,t(6;7)(q23;q32)[20]","2011-11-04","17","IPSC","45,X,-Y,t(6;7)(q23;q32)[20]","Abnormal"
"WC1687.K1",1687,"46,XY,add(7)(q11.23)[13]","2011-12-07","36","IPSC","46,XY,add(7)(q11.23)[13]/47,XY,+12[6]/46,XY[1]","Abnormal"
"WC1766.K1",1766,"46,XY,t(1;7)(p36.1;q32),t(3;8)(q12;q13),t(5;19)(q21;p12),t(14;16)(p11.2;p13.3)[20]","2012-01-24","3","IPSC","46,XY,t(1;7)(p36.1;q32),t(3;8)(q12;q13),t(5;19)(q21;p12),t(14;16)(p11.2;p13.3)[20]","Abnormal"
"WC1791.K1",1791,"46,XY,der(7)t(1;7)(q12;p22)[10]","2012-01-31","26/24/12","IPSC","46,XY,der(7)t(1;7)(q12;p22)[10]/46,XY[10]","Abnormal"
"WC2047.K1",2047,"46,XY,t(3;7)(q21;p15)[20]","2012-03-29","11","IPSC","46,XY,t(3;7)(q21;p15)[20]","Abnormal"
"WC2100.K3",2100,"46,XX,der(12)t(7;12)(p15;q24.3)[1]","2012-04-17","9","IPSC","46,XX,del(12)(q24.3)[cp6]/46,XX,add(12)(q24.3)[cp2]/46,XX,der(12)t(7;12)(p15;q24.3)[1]/ 46,XX,der(12)add(12)(p13)t(7;12)(p15;q24.3)[cp2]/46,XX[4]","Abnormal"
"WC2100.K4",2100,"46,XX,der(12)add(12)(p13)t(7;12)(p15;q24.3)[cp2]","2012-04-17","9","IPSC","46,XX,del(12)(q24.3)[cp6]/46,XX,add(12)(q24.3)[cp2]/46,XX,der(12)t(7;12)(p15;q24.3)[1]/ 46,XX,der(12)add(12)(p13)t(7;12)(p15;q24.3)[cp2]/46,XX[4]","Abnormal"
"WC2116.K1",2116,"46,XY,t(3;7)(q12;p13)[20]","2012-04-23","4","IPSC","46,XY,t(3;7)(q12;p13)[20]","Abnormal"
"WC2243.K1",2243,"46,XX,del(7)(q11.21q11.23)[17]","2012-05-18","9","IPSC","46,XX,del(7)(q11.21q11.23)[17]/46,XX[3]","Abnormal"
"WC2244.K1",2244,"46,XY,del(7)(q11.2)[17]","2012-05-18","7","IPSC","46,XY,del(7)(q11.2)[17]/46,XY,i(7)(p10)[2]","Abnormal"
"WC2244.K2",2244,"46,XY,i(7)(p10)[2]","2012-05-18","7","IPSC","46,XY,del(7)(q11.2)[17]/46,XY,i(7)(p10)[2]","Abnormal"
"WC2330.K1",2330,"45,X,-Y,t(6;7)(q23;q32)[20]","2012-06-08","12","IPSC","45,X,-Y,t(6;7)(q23;q32)[20]","Abnormal"
"WC2636.K1",2636,"46,XY,add(7)(q22),t(9;17)(q34;q21)[20]","2012-09-13","4","IPSC","46,XY,add(7)(q22),t(9;17)(q34;q21)[20]","Abnormal"
"WC2689.K1",2689,"46,X,t(X;7)(p22.13;p15.1)[20]","2012-10-05","27","IPSC","46,X,t(X;7)(p22.13;p15.1)[20]","Abnormal"
"WC2691.K1",2691,"46,X,t(X;7)(p22.13;p15.1)[20]","2012-10-05","17","IPSC","46,X,t(X;7)(p22.13;p15.1)[20]","Abnormal"
"WC2692.K1",2692,"46,X,t(X;7)(p22.13;p15.1)[20]","2012-10-05","14","IPSC","46,X,t(X;7)(p22.13;p15.1)[20]","Abnormal"
"WC2693.K1",2693,"46,X,t(X;7)(p22.13;p15.1)[20]","2012-10-05","20","IPSC","46,X,t(X;7)(p22.13;p15.1)[20]","Abnormal"
"WC2755.K1",2755,"46,XY,add(7)(q22),t(9;17)(q34;q21)[20]","2012-10-24","4","IPSC","46,XY,add(7)(q22),t(9;17)(q34;q21)[20]","Abnormal"
"WC2918.K2",2918,"46,XY,inv(2)(p23q35),del(4)(p16),del(7)(p22),der(21)t(17;21)(q21;q22)[cp5]","2012-12-06","9","IPSC","46,XY,inv(2)(p23q35),del(4)(p16)[15]/_x000D_
46,XY,inv(2)(p23q35),del(4)(p16),del(7)(p22),der(21)t(17;21)(q21;q22)[cp5]_x000D_
","Abnormal"
"WC3032.K2",3032,"47~48,XY,add(4)(q35),+7,add(8)(p23),add(14)(q32),+20,+21[cp4]","2013-01-11","30","IPSC","46,XX,t(1;9;22;11)(p34;q34;q11.2;q23)[16]/47~48,XY,add(4)(q35),+7,add(8)(p23),add(14)(q32),+20,+21[cp4]_x000D_
","Abnormal"
"WC3226.K1",3226,"46,XX,add(1)(p36.1),inv(1)(p12p36.1),t(3;5;10)(p23;q33.1;p11.2),del(6)(p22),t(7;15)(p22;q22)","2013-03-13","12","IPSC","46,XX,add(1)(p36.1),inv(1)(p12p36.1),t(3;5;10)(p23;q33.1;p11.2),del(6)(p22),t(7;15)(p22;q22)","Abnormal"
"WC3228.K1",3228,"46,XX,add(7)(p15)[20]","2013-03-13","10","IPSC","46,XX,add(7)(p15)[20]","Abnormal"
"WC3259.K1",3259,"46,XY,t(4;7)(q21;p13)[20]","2013-03-21","16","IPSC","46,XY,t(4;7)(q21;p13)[20]","Abnormal"
"WC3330.K1",3330,"46,XY,del(7)(q11.1)[20]","2013-04-10","53","IPSC","46,XY,del(7)(q11.1)[20]","Abnormal"
"WC3426.K1",3426,"46,XX,i(7)(p10)[2]","2013-05-01","29","IPSC","46,XX,i(7)(p10)[2]/47,XX,+mar[2]/46,XX[19]","Abnormal"
"WC3536.K1",3536,"46,XX,i(7)(p10)[3]","2013-06-05","33 (thaw p+19)","IPSC","46,XX,i(7)(p10)[3]/46,XX[16]","Abnormal"
"WC3606.K1",3606,"46,XX,inv(7)(p15q22)[20]","2013-06-26","8","IPSC","46,XX,inv(7)(p15q22)[20]","Abnormal"
"WC3650.K1",3650,"46,XX,add(1)(p36.1),inv(1)(p12p36.1),t(3;5;10)(p23;q33.1;p11.2),del(6)(p22),t(7;15)(p22;q22)[20]","2013-07-11","9","IPSC","46,XX,add(1)(p36.1),inv(1)(p12p36.1),t(3;5;10)(p23;q33.1;p11.2),del(6)(p22),t(7;15)(p22;q22)[20]","Abnormal"
"WC3726.K1",3726,"46,XX,t(1;4)(p36.3;q11),t(2;6)(q37.1;p11.2),t(7;10)(q32;p13),t(17;18)(q25;q23)[20]","2013-07-30","6","IPSC","46,XX,t(1;4)(p36.3;q11),t(2;6)(q37.1;p11.2),t(7;10)(q32;p13),t(17;18)(q25;q23)[20]","Abnormal"
"WC3733.K1",3733,"46,XY,t(7;17)(q22;q23)[20]","2013-08-01","14","IPSC","46,XY,t(7;17)(q22;q23)[20]","Abnormal"
"WC3761.K1",3761,"46,X,inv(X)(p22.1q28),t(7;20)(q22;q11.1),t(9;20)(q34;p11.2)[18]","2013-08-27","17","IPSC","46,X,inv(X)(p22.1q28),t(7;20)(q22;q11.1),t(9;20)(q34;p11.2)[18]/47,X,inv(X)(p22.1q28),t(7;20)(q22;q11.1),t(9;20)(q34;p11.2),+15[cp2]_x000D_
","Abnormal"
"WC3761.K2",3761,"47,X,inv(X)(p22.1q28),t(7;20)(q22;q11.1),t(9;20)(q34;p11.2),+15[cp2]","2013-08-27","17","IPSC","46,X,inv(X)(p22.1q28),t(7;20)(q22;q11.1),t(9;20)(q34;p11.2)[18]/47,X,inv(X)(p22.1q28),t(7;20)(q22;q11.1),t(9;20)(q34;p11.2),+15[cp2]_x000D_
","Abnormal"
"WC3794.K1",3794,"46,XX,der(3)t(3;7)(p25;p13)[11]","2013-08-20","6","IPSC","46,XX,der(3)t(3;7)(p25;p13)[11]/46,XX[9]","Abnormal"
"WC3801.K1",3801,"46,XY,ins(7;13)(p15.1;q32q14.1),del(13)(q33),t(11;16)(q13.5;q24)[20]","2013-08-21","14","IPSC","46,XY,ins(7;13)(p15.1;q32q14.1)del(13)(q33),t(11;16)(q13.5;q24)[20]","Abnormal"
"WC3916.K1",3916,"46,X,inv(X)(p22.1q28),t(7;20)(q22;q11.1),t(9;20)(q34;p11.2)","2013-09-24","22","IPSC","46,X,inv(X)(p22.1q28),t(7;20)(q22;q11.1),t(9;20)(q34;p11.2)","Abnormal"
"WC3917.K1",3917,"46,X,inv(X)(p22.1q28),t(7;20)(q22;q11.1),t(9;20)(q34;p11.2)","2013-09-24","22","IPSC","46,X,inv(X)(p22.1q28),t(7;20)(q22;q11.1),t(9;20)(q34;p11.2)","Abnormal"
"WC4004.K1",4004,"46,XY,t(3;7)(q29;q11.23)[20]","2013-10-08","8","IPSC","46,XY,t(3;7)(q29;q11.23)[20]","Abnormal"
"WC4064.K2",4064,"91,XXXY,-7[14]","2013-10-21","3","ESC","91,XXXY,-7[10]/92,XXXY[7]/46,XY[3]","Abnormal"
"WC4166.K2",4166,"91,XXXY,-7[8]","2013-11-15","7","ESC","91,XXXY,-7[14]/92,XXXY[2]/46,XY[1]","Abnormal"
"WC4167.K2",4167,"91,XXXY,-7[8]","2013-11-15","7","ESC","91,XXXY,-7[8]/92,XXXY[11]/46,XY[1]","Abnormal"
"WC4252.K1",4252,"47,XY,add(7)(q36),+8[10]","2013-12-18","27","IPSC","47,XY,add(7)(q36),+8[10]/46,XY,i(20)(q10)[10]","Abnormal"
"WC4355.K1",4355,"46,XX,t(1;4)(p36.3;q11),t(2;6)(q37.1;p11.2),t(7;10)(q32;p13),t(17;18)(q25;q23)","2014-01-28","8","IPSC","46,XX,t(1;4)(p36.3;q11),t(2;6)(q37.1;p11.2),t(7;10)(q32;p13),t(17;18)(q25;q23)","Abnormal"
"WC4383.K1",4383,"46,XX,t(1;4)(p36.3;q12),t(2;6)(q37.1;p11.2),t(7;10)(q32;p13),t(17;18)(q23;q21.3)[20]","2014-02-05","10","IPSC","46,XX,t(1;4)(p36.3;q12),t(2;6)(q37.1;p11.2),t(7;10)(q32;p13),t(17;18)(q23;q21.3)[20]","Abnormal"
"WC4400.K2",4400,"46,XY,i(7)(p10)[2]","2014-02-13","32 26.1.2014","IPSC","46,XY,i(20)(q10)[4]/46,XY,i(7)(p10)[2]/46,XY[33]","Abnormal"
"WC4459.K1",4459,"46,X,t(X;20)(p22.1;p13),t(7;20)(q34;q11.2),inv(20)(p11.2q11.23),t(5;14)(q13;q22),t(6;22)(p21.3;q13)[20]","2014-02-26","22","IPSC","46,X,t(X;20)(p22.1;p13),t(7;20)(q34;q11.2),inv(20)(p11.2q11.23),t(5;14)(q13;q22),t(6;22)(p21.3;q13)[20]","Abnormal"
"WC4520.K1",4520,"46,XX,t(1;4)(p36.3;q12),t(2;6)(q37.1;p11.2),t(7;10)(q32;p13),t(17;18)(q23;q21.3)","2014-03-13","15","IPSC","46,XX,t(1;4)(p36.3;q12),t(2;6)(q37.1;p11.2),t(7;10)(q32;p13),t(17;18)(q23;q21.3)","Abnormal"
"WC4598.K1",4598,"46,XY,inv(7)(p22q22)[2]","2014-04-08","8","IPSC","46,XY,inv(7)(p22q22)[2]/46,XY[18]","Abnormal"
"WC4700.K1",4700,"46,XX,inv(7)(p22q21.2)[16]","2014-05-06","4","IPSC","46,XX,inv(7)(p22q21.2)[16]/46,XX[4]","Abnormal"
"WC4712.K1",4712,"46,XY,t(7;21)(q22;q21)[20]","2014-05-08","5","IPSC","46,XY,t(7;21)(q22;q21)[20]","Abnormal"
"WC4807.K1",4807,"46,XY,t(4;7)(p14;q22)[20]","2014-06-05","6","IPSC","46,XY,t(4;7)(p14;q22)[20]","Abnormal"
"WC4883.K1",4883,"46,XY,der(1)t(1;7)(q12;q36)[4]","2014-07-02","51","ESC","46,XY,t(7;11)(q22;q21)[5]/46,XY,der(1)t(1;7)(q12;q36)[4]/46,XY[11]","Abnormal"
"WC4883.K2",4883,"46,XY,t(7;11)(q22;q21)[5]","2014-07-02","51","ESC","46,XY,t(7;11)(q22;q21)[5]/46,XY,der(1)t(1;7)(q12;q36)[4]/46,XY[11]","Abnormal"
"WC4941.K1",4941,"46,XX,i(7)(p10)[7]","2014-07-17","60","ESC","46,XX,i(7)(p10)[7]/46,XX[13]","Abnormal"
"WC5146.K2",5146,"46,XY,inv(4)(q12q27),i(7)(p10)[12]","2014-09-18","11","IPSC","46,XY,inv(4)(q12q27)[2]/46,XY,inv(4)(q12q27),i(7)(p10)[12]/46,XY[6]","Abnormal"
"WC5316.K1",5316,"46,X,der(X)t(X;7)(p11.2;p13),der(21)t(X;21)(p11.2;q22)[17]","2014-11-21","13","IPSC","46,X,der(X)t(X;7)(p11.2;p13),der(21)t(X;21)(p11.2;q22)[17]/46,XX[3]","Abnormal"
"WC5387.K1",5387,"46,X,der(X)t(X;7)(p11.2;p13),der(21)t(X;21)(p11.2;q22)[18]","2014-12-16","14","IPSC","46,X,der(X)t(X;7)(p11.2;p13),der(21)t(X;21)(p11.2;q22)[18]","Abnormal"
"WC5656.K1",5656,"46,XX,t(1;7)(p36.1;q32),t(6;9)(p23;q22.1),inv(10)(q11.2q26.3),add(16)(p13.1)[20]","2015-02-12","18","IPSC","46,XX,t(1;7)(p36.1;q32),t(6;9)(p23;q22.1),inv(10)(q11.2q26.3),add(16)(p13.1)[20]","Abnormal"
"WC5705.K1",5705,"46,XX,der(7)t(7;7)(p22;q11.23)[20]","2015-02-24","4","IPSC","46,XX,der(7)t(7;7)(p22;q11.23)[20]","Abnormal"
"WC5908.K1",5908,"46,Y,t(X;6)(q26;q27),t(7;10)(q21;q11.2)[17]","2015-03-27","22","IPSC","46,Y,t(X;6)(q26;q27),t(7;10)(q21;q11.2)[17]/46,Y,t(X;6)(q26;q27),t(7;10)(q21;q11.2),i(20)(q10)[3]","Abnormal"
"WC5908.K2",5908,"46,Y,t(X;6)(q26;q27),t(7;10)(q21;q11.2),i(20)(q10)[3]","2015-03-27","22","IPSC","46,Y,t(X;6)(q26;q27),t(7;10)(q21;q11.2)[17]/46,Y,t(X;6)(q26;q27),t(7;10)(q21;q11.2),i(20)(q10)[3]","Abnormal"
"WC5952.K1",5952,"46,XY,dup(7)(p15.3p22)[19]","2015-04-09","13","IPSC","46,XY,dup(7)(p15.3p22)[19]","Abnormal"
"WC5990.K1",5990,"46,XY,del(7)(q33)[2]","2015-04-20","44","IPSC","46,XY,del(7)(q33)[2]/46,XY[19]","Abnormal"
"WC6215.K1",6215,"46,XY,del(2)(q23q31),t(3;15)(q26.2;q24),del(4)(q31.1q33),del(5)(q22q23.2),t(7;17)(p21;p11.2),der(13)t(4;13)(q28;p11.2)[20]","2015-06-19","8","IPSC","46,XY,del(2)(q23q31),t(3;15)(q26.2;q24),del(4)(q31.1q33),del(5)(q22q23.2),t(7;17)(p21;p11.2),der(13)t(4;13)(q28;p11.2)[20]","Abnormal"
"WC6542.K1",6542,"88,XXYY,-7,-11,-13,-18[3]","2015-08-27","43","IPSC","88,XXYY,-7,-11,-13,-18[3]/87,XXYY,-7,-9,-11,-13,-18[5]/88,XXYY,-7,del(9)(q11),-11,-13,-18[12]","Abnormal"
"WC6542.K2",6542,"87,XXYY,-7,-9,-11,-13,-18[5]","2015-08-27","43","IPSC","88,XXYY,-7,-11,-13,-18[3]/87,XXYY,-7,-9,-11,-13,-18[5]/88,XXYY,-7,del(9)(q11),-11,-13,-18[12]","Abnormal"
"WC6542.K3",6542,"88,XXYY,-7,del(9)(q11),-11,-13,-18[12]","2015-08-27","43","IPSC","88,XXYY,-7,-11,-13,-18[3]/87,XXYY,-7,-9,-11,-13,-18[5]/88,XXYY,-7,del(9)(q11),-11,-13,-18[12]","Abnormal"
"WC6819.K1",6819,"46,XY,t(1;7)(q42;q36)[2]","2015-10-15","7","IPSC","46,XY,t(1;7)(q42;q36)[2]/46,XY[18]","Abnormal"
"WC6958.K2",6958,"46,XX,t(7;18)(q36;q21)[2]","2015-11-06","6","IPSC","46,XX,t(1;4)(q42;q12)[2]/46,XX,t(7;18)(q36;q21)[2]/46,XX[16]","Abnormal"
"WC7358.K1",7358,"46,XY,der(7)t(3;7)(p21;q36)[19]","2015-12-23","9","IPSC","46,XY,der(7)t(3;7)(p21;q36)[19]/46,XY[1]","Abnormal"
"WC7545.K1",7545,"46,XY,del(3)(q25),add(7)(p22),der(11)t(11;17)(p15;q21),add(20)(p13)[20]","2016-02-03","5","IPSC","46,XY,del(3)(q25),add(7)(p22),der(11)t(11;17)(p15;q21),add(20)(p13)[20]","Abnormal"
"WC7852.K2",7852,"46,XY,t(4;7)(q12;q32),del(13)(q22.1q22.3),dup(20)(q11.2q11.2)[2]","2016-03-17","16","IPSC","46,XY,dup(20)(q11.2q11.2)[11]/46,XY,t(4;7)(q12;q32),del(13)(q22.1q22.3),dup(20)(q11.2q11.2)[2]/46,XY[5]","Abnormal"
"WC7948.K1",7948,"46,XX,t(1;7)(p36.3;q22)[3]","2016-03-31","12","IPSC","46,XX,t(1;7)(p36.3;q22)[3]/46,XX[16]","Abnormal"
"WC7961.K2",7961,"91,XXXY,-7[10]","2016-04-01","10","ESC","69,XXX,der(1)t(1;1)(p36.3;q25)dup(1)(q21q32)[2]/69,XXX[17]","Abnormal"
"WC8133.K1",8133,"46,XY,t(7;9)(q11.2;q22)[19]","2016-04-29","16","IPSC","46,XY,t(7;9)(q11.2;q22)[19]","Abnormal"
"WC8193.K2",8193,"47,XY,+7,i(7)(p10)x2[6]","2016-05-11","22","IPSC","47,XY,+12[7]/47,XY,+7,i(7)(p10)x2[6]/47,X,idic(Y)(q12),+idic(Y)(q12)[3]/46,XY[2]","Abnormal"
"WC8300.K1",8300,"46,XY,der(16)t(7;16)(p13;p13.3)[17]","2016-05-27","17","IPSC","46,XY,der(16)t(7;16)(p13;p13.3)[17]/46,XY[3]","Abnormal"
"WC8503.K1",8503,"46,XX,add(7)(p22)[4]","2016-07-06","56","IPSC","46,XX,add(7)(p22)[4]/46,XX[11]","Abnormal"
"WC8591.K1",8591,"46,Y,t(X;7)(q26;q11.23)[20]","2016-07-27","13","IPSC","46,Y,t(X;7)(q26;q11.23)[20]","Abnormal"
"WC8673.K1",8673,"46,X,t(Y;7)(q11.21;q11.23)[2]","2016-08-09","11","IPSC","46,X,t(Y;7)(q11.21;q11.23)[2]/46,XY[18]","Abnormal"
"WC8751.K1",8751,"46,XY,der(7)t(1;7)(q12;q36)[17]","2016-08-22","12","IPSC","46,XY,der(7)t(1;7)(q12;q36)[17]/46,XY[3]","Abnormal"
"WC8852.K1",8852,"47,XX,+7[4]","2016-08-30","4","IPSC","47,XX,+7[4]/46,XX[16]","Abnormal"
"WC8916.K1",8916,"46,X,t(Y;7)(q11.21;q11.23)[6]","2016-09-09","6","IPSC","46,X,t(Y;7)(q11.21;q11.23)[6]/46,XY[14]","Abnormal"
"WC9446.K1",9446,"91,XXXX,-7[9]","2016-12-01","108","ESC","92,XXXX,dup(17)(q21q25)x2[16]","Abnormal"
"WC9451.K1",9451,"46,XY,inv(7)(p21p22)[20]","2016-11-30","12","IPSC","46,XY,inv(7)(p21p22)[20]","Abnormal"
"WC9691.K1",9691,"46,XX,t(7;22)(q36;q13.1)[17]","2017-01-17","12","IPSC","46,XX,t(7;22)(q36;q13.1)[17]/46,XX,t(7;22)(q36;q13.1),i(20)(q10)[3]_x000D_
_x000D_
","Abnormal"
"WC9691.K2",9691,"46,XX,t(7;22)(q36;q13.1),i(20)(q10)[3]","2017-01-17","12","IPSC","46,XX,t(7;22)(q36;q13.1)[17]/46,XX,t(7;22)(q36;q13.1),i(20)(q10)[3]_x000D_
_x000D_
","Abnormal"
"WC9752.K1",9752,"46,X,t(Y;7)(q11.21;q11.23)[6]","2017-01-24","7","IPSC","46,X,t(Y;7)(q11.21;q11.23)[6]/46,XY[14]","Abnormal"
"WC10037.K2",10037,"46,XX,der(3)t(3;7)(p23;q11.2),t(5;14)(p13;q24)[15]","2017-03-01","6","IPSC","46,XX,t(5;14)(p13;q24)[5]/46,XX,der(3)t(3;7)(p23;q11.2),t(5;14)(p13;q24)[15]","Abnormal"
"WC10671.K1",10671,"46,XY,inv(7)(p15q11.2)[4]","2017-05-10","10","IPSC","46,XY,inv(7)(p15q11.2)[4]/46,XY[16]","Abnormal"
"WC10757.K1",10757,"91,XXXX,-7[3]","2017-05-23","7","ESC","92,XXXX[10]/91,XXXX,-7[9]","Abnormal"
"WC10813.K1",10813,"46,XY,t(7;11)(q11.2;q13)[20]","2017-05-26","34","IPSC","46,XY,t(7;11)(q11.2;q13)[20]","Abnormal"
"WC10816.K1",10816,"46,XY,t(7;11)(q11.2;q13)[20]","2017-05-26","35","IPSC","46,XY,t(7;11)(q11.2;q13)[20]","Abnormal"
"WC11410.K1",11410,"46,Y,t(X;4)(p22.1;q35),der(7)inv(7)(p11.1q36)inv(7)(q32q36)[19]","2017-08-11","8","IPSC","46,Y,t(X;4)(p22.1;q35),der(7)inv(7)(p11.1q36)inv(7)(q32q36)[19]","Abnormal"
"WC12220.K2",12220,"46,XY,t(3;7;3)(q12;q32;p21.3)[4]","2017-11-10","8","IPSC","46,XY,t(5;20)(p14;p13)[10]/46,XY,t(3;7;3)(q12;q32;p21.3)[4]/46,XY[6]","Abnormal"
"WC12304.K1",12304,"46,XY,t(5;7)(q22;p22)[5]","2017-11-27","12","IPSC","46,XY,t(5;7)(q22;p22)[5]/46,XY[14]","Abnormal"
"WC12433.K1",12433,"46,XX,der(7)t(7;7)(q36;p13)[10]","2017-12-08","7","IPSC","46,XX,der(7)t(7;7)(q36;p13)[10]/47,XX,der(7)t(7;7)(q36;p13),+8[cp2]/46,XX[8]","Abnormal"
"WC12433.K2",12433,"47,XX,der(7)t(7;7)(q36;p13),+8[cp2]","2017-12-08","7","IPSC","46,XX,der(7)t(7;7)(q36;p13)[10]/47,XX,der(7)t(7;7)(q36;p13),+8[cp2]/46,XX[8]","Abnormal"
"WC12454.K1",12454,"46,XY,t(4;7)(q12;q11.2)[20]","2017-12-12","12","IPSC","46,XY,t(4;7)(q12;q11.2)[20]","Abnormal"
"WC12505.K1",12505,"46,XY,del(11)(q22.2q23.3),der(20)t(7;20)(p13;q13.3)[20]","2017-12-19","8","IPSC","46,XY,del(11)(q22.2q23.3),der(20)t(7;20)(p13;q13.3)[20]","Abnormal"
"WC12595.K1",12595,"46,XY,t(6;7)(q13;q34)[4]","2018-01-08","12","IPSC","46,XY,t(6;7)(q13;q34)[4]/46,XY[15]","Abnormal"
"WC12871.K1",12871,"46,XY,i(7)(p10)[20]","2018-02-12","14","IPSC","46,XY,i(7)(p10)[20]","Abnormal"
"WC13366.K1",13366,"46,XX,i(7)(p10)[17]","2018-04-06","1","IPSC","46,XX,i(7)(p10)[17]/46,XX[3]","Abnormal"
"WC13535.K1",13535,"46,XX,i(7)(p10)[14]","2018-05-01","p31+15","IPSC","46,XX,i(7)(p10)[14]/46,XX[6]","Abnormal"
"WC13587.K1",13587,"47,XY,+i(7)(p10)[3]","2018-05-04","25","IPSC","47,XY,+i(7)(p10)[3]/46,XY[16]","Abnormal"
"WC13821.K1",13821,"46,XX,i(7)(p10)[8]","2018-06-05","31+14","IPSC","46,XX,i(7)(p10)[8]/46,XX[12]","Abnormal"
"WC13970.K1",13970,"46,XY,del(1)(p31.1),del(7)(q11.1),der(9)t(9;19)(p24;q13.1)t(7;19)(q11.1;q13.4)inv(7)(q11.21q36),der(17)del(17)(q23)t(1;17)(p31;q23),der(19)t(9;19)(p24;q13.1)[20]","2018-06-22","19","IPSC","46,XY,del(1)(p31.1),del(7)(q11.1),der(9)t(9;19)(p24;q13.1)t(7;19)(q11.1;q13.4)inv(7)(q11.21q36),der(17)del(17)(q23)t(1;17)(p31;q23),der(19)t(9;19)(p24;q13.1)[20]","Abnormal"
"WC14055.K1",14055,"46,XX,der(7)t(1;7)(q12;q11.2)[20]","2018-07-06","41","ESC","46,XX,der(7)t(1;7)(q12;q11.2)[20]","Abnormal"
"WC14056.K1",14056,"46,XX,der(7)t(1;7)(q12;q11.2)[5]","2018-07-06","36","ESC","46,XX,der(7)t(1;7)(q12;q11.2)[5]/46,XX[14]","Abnormal"
"WC14057.K1",14057,"46,XX,der(7)t(1;7)(q12;q11.2)[18]","2018-07-06","41","ESC","46,XX,der(7)t(1;7)(q12;q11.2)[18]/46,XX[1]    ","Abnormal"
"WC14111.K2",14111,"90,XXYY,add(3)(p26),-5,-7[18]","2018-07-17","3","IPSC","91,XXYY,add(3)(p26),-5[2]/90,XXYY,add(3)(p26),-5,-7[18]","Abnormal"
"WC14316.K1",14316,"46,XX,i(7)(p10)[18]","2018-08-21","31+16","IPSC","46,XX,i(7)(p10)[18]/46,XX[1]","Abnormal"
"WC14624.K1",14624,"46,XY,t(7;14)(p15;q12)[19]","2018-09-26","11","IPSC","46,XY,t(7;14)(p15;q12)[19]","Abnormal"
"WC14626.K1",14626,"46,XY,t(7;14)(p15;q12)[20]","2018-09-26","11","IPSC","46,XY,t(7;14)(p15;q12)[20]","Abnormal"
"WC14841.K1",14841,"46,XX,dup(1)(q12q31),t(7;20)(q31.2;q13.3)[15]","2018-11-01","9","IPSC","46,XX,dup(1)(q12q31),t(7;20)(q31.2;q13.3)[15]/46,XX,dup(1)(q12q31),der(6)t(6;7)(p21.3;q31.2)ins(6)(p21.3;?),-20,+der(?)t(?;7)(?;q31.2)[2]","Abnormal"
