"Blinded.ID.","G.banded.Karyotype.Results"
63,"46,XY,?del(1)(q42.13q42.13)[14]/46,XY[6]"
93,"46,XY,?del(1)(q42.13q42.13)[11]/46,XY[9]"
399,"46,XY[2]/46,XX[19]"
479,"48,XX,+12,+17[19]/46,XX[1]"
723,"46,XY,?del(10)(p14)[7]/46,XY[13]"
812,"47,XX,+mar[2]/46,XX[19]"
815,"46,X,?del(Y)(q12)[3]/46,XY[18]"
820,"46,Y,dup(X)(?p22.1p22.31)[19]/46,XY[2]"
828,"47,XX,+mar[2]/46,XX[18]"
938,"46,XX[14]/46,XY[6]"
939,"46,XY[14]/46,XX[6]"
940,"46,XY[21]/46,XX[2]"
967,"46,XY[17]/46,XX[4]"
984,"47,XXY"
1194,"46,XX,?dup(3)(p25p25)[16]/46,XX[4]"
1195,"46,XX,?dup(3)(p25p25)[20]"
1323,"47,XY,+mar[3]/46,XX[19]"
1422,"92,XXYY"
1443,"46,XY,ins(17;?)(q11.2;?)[19]"
1610,"44~46,XY,der(16)t(?8;16)(?p11.2;q24)[cp2]/46,XY[10]"
1708,"46,XY,?dup(1)(q25q32)[3]/46,XY[17]"
1769,"46,XX,?inv(6)(p11.2p21.1)[20]"
1863,"47,XXX[17]"
1898,"45,X[10]"
1909,"46,XY,?inv(11)(p13p15)[10]"
1944,"46,XX,?dup(20)(q11.2q11.2)[5]/46,XX[15]"
2049,"46,XX[16]/46,XY[4]"
2161,"46,XY,?der(8)t(8;15)(q24.1;q15)[11]/46,XY[4]"
2346,"46,XX[17]/46,XY[3]"
2805,"46,XX[35]/46,XY[5]"
2845,"46,XX,t(4;11;11;4)(q27;p?15;q13;q27)?add(11)(q13)[20]"
2846,"46,XX,t(4;11;11;4)(q27;p?15;q13;q27)?add(11)(q13)[20]"
2847,"46,XX,t(4;11;11;4)(q27;p?15;q13;q27)?add(11)(q13)[20]"
2989,"46,XX[15]/46,XY[5]"
2990,"46,XY[2]/46,XX[18]"
3015,"46,XY[20]"
3043,"45,X[20]"
3577,"47,XX,+mar1[4]/46,XX[15]"
3599,"46, XY"
3604,"46,XY[19]/46,XX[7]"
3772,"45,X"
4017,"47,XY,+mar[8]/46,XY[12]"
4062,"92,XXXY"
4164,"92,XXXY[13]/46,XY[5]"
4165,"92,XXXY[16]/46,XY[4]"
4171,"92,XXXY"
4172,"92,XXXY[13]/46,XY[4]"
4411,"46,XX,?dup(2)(q32.2q31)[20]"
4415,"46,XY[26]/46,XX[2]"
4661,"46,XX,?add(10)(q11.2),?der(17)t(10;17)(q11.2;p11.2)[20]"
4769,"46,XX[18]/46,XY[2]"
4806,"46,XY,?dic(1;10)(p11;q24.3),?der(1)t(1;10)(q11;q24.3)[19]"
4816,"46,XY[2]/46,XX[19]"
4827,"45,X[19]"
4843,"46,XX[17]/46,XY[1]"
4845,"46,XX,?add(10)(q11.2),?der(17)t(10;17)(q11.2;p11.2)[20]"
4847,"46,XX,?inv(9)(q21.2q32)[18]_x000D_"
4870,"46,XX,?dup(3)(p25p25)[11]/46,XX[9]"
4871,"46,XX,?dup(3)(p25p25)[6]/46,XX[14]"
4884,"45,X[20]_x000D_
_x000D_
"
4900,"46,XY,?ins(14;4)(q32.3;q25q27)[20]"
4963,"46,XY[2]/46,XX[19]_x000D_
_x000D_
"
5008,"46,XX,der(15)t(15;?21)(p11.2;?q11.2)[3]/46,XX[19]"
5136,"46,XX,?add(10)(q11.2),?der(17)t(10;17)(q11.2;p11.2)[20]"
5588,"46,XY[19]/46,XX[1]"
5679,"46,XY,?trp(1)(q32q42)[2]/46,XY[19]"
5909,"46,XY[15]/46,XX[5]"
6013,"47,XX,+mar[14]/48,XX,+2mar[5]/46,XX[1]"
6076,"46,XY,?dup(20)(q11.2q11.2)[4]/46,XY[16]"
6077,"46,XY,?dup(20)(q11.2q11.2)[3]/46,XY[16]"
6227,"46,XY,r(18)(p?11.3q?21.3)[2]/46,XY[18]"
6270,"47,XX,+mar[8]/46,XX[12]"
6271,"47,XX,+mar[11]/46,XX[9]"
6272,"47,XX,+mar[2]/46,XX[18]"
6715,"47,XY,der(1)ins(1;?)(q21;?),+idic(12)(?p10)[4]/46,XY[16]"
6978,"45,X[20]"
6997,"47,XY,+mar[2]/46,XY[18]"
6998,"47,XY,+mar1[6]/46,XY[13]"
6999,"47,XY,+mar[4]/46,XY[16]"
7002,"47,XX,+mar[4]/46,XX[16]"
7005,"47,XX,+mar[12]/46,XX[8]"
7113,"45,X"
7590,"47,XY,+mar[20]"
7641,"46,XY,der(18)t(4;18)(q?24;q21.1)[3]/46,XY[17]"
7692,"47,XY,+mar[2]/46,XY[18]"
7770,"46,XY, t(1;3)(p?32;p21)[14]/46,XY[6]"
7985,"46,XX[15]/46,XY[5]_x000D_
"
8094,"47,XX,+mar[3]/46,XX[17]"
8185,"46,XX,?dup(20)(q11.2q11.2)[18]/46,XX[2]"
8186,"46,XX,?dup(20)(q11.2q11.2)[13]/46,XX[7]"
8187,"46,XX,?dup(20)(q11.2q11.2)[17]/46,XX[2]"
8188,"46,XX,?dup(20)(q11.2q11.2)[18]/46,XX[2]"
8189,"46,XX,?dup(20)(q11.2q11.2)[20]"
8197,"46,XY[17]/46,XX[2]"
8237,"46,XX,?dup(20)(q11.2q11.2)[9]/46,XX[11]"
8254,"46,XY,?dup(20)(q11.2q11.2)[4]/46,XY[1]"
8294,"46,XX,?dup(20)(q11.2q11.2)[3]/46,XX[2]"
8301,"46,XX,?dup(20)(q11.2q11.2)[11]/46,XX[9]"
8302,"46,XX,?dup(20)(q11.2q11.2)[9]/46,XX[11]"
8304,"46,XX,?dup(20)(q11.2q11.2)[9]/46,XX[11]"
8400,"46,XY,?dup(20)(q11.2q11.2)[8]/46,XY[12]"
8416,"46,XY,?dup(20)(q11.2q11.2)[6]/46,XY[14]"
8449,"46,XY,?dup(20)(q11.2q11.2)[13]/46,XY[7]"
8462,"45,X[20]"
8466,"46,XY,?dup(20)(q11.2q11.2)[3]/46,XY[2]"
8492,"46,XX,?dup(20)(q11.2q11.2)[9]/46,XY[10]"
8585,"47,XX,+mar[6]/46,XX[13]"
8586,"46,XX,?del(2)(q14.1q14.3)[20]"
8587,"46,XX,?del(2)(q14.1q14.3)[20]"
8614,"46,XY,?dup(20)(q11.2q11.2)[12]/46,XY[8]"
8624,"46,XX,?dup(20)(q11.2q11.2)[11]/46,XX[9]"
8692,"46,XX,?dup(20)(q11.2q11.2)[3]/46,XX[1]"
8821,"46,XY,?ins(3;8)(q21;q13q21.2)[20]"
8863,"46,XX,?dup(20)(q11.2q11.2)[6]/46,XX[14]"
8864,"46,XX,?dup(20)(q11.2q11.2)[8]/46,XX[12]"
8865,"46,XX,?dup(20)(q11.2q11.2)[9]/46,XX[11]"
8875,"46,XX,?dup(20)(q11.2q11.2)[6]/46,XX[14]"
8902,"46,XY,?dup(20)(q11.2q11.2)[8]/46,XY[12]"
8905,"46,XY,?dup(20)(q11.2q11.2)[15]/46,XY[5]"
8926,"46,XY,?dup(20)(q11.2q11.2)[9]/46,XY[11]"
9000,"46,XX,?del(2)(q14.1q14.3)[20]"
9002,"46,XX,?del(2)(q14.1q14.3)[19]"
9058,"47,XY,+mar[17]/46,XY[2]"
9104,"45,X[20]"
9106,"45,X[20]"
9117,"46,XY,?dup(20)(q11.2q11.2)[4]/46,XY[16]"
9159,"46,XY,?dup(20)(q11.2q11.2)[9]/46,XY[11]"
9182,"46,XY,?dup(20)(q11.2q11.2)[10]/46,XY[29]"
9194,"46,XY,?dup(20)(q11.2q11.2)[7]/46,XY[13]"
9195,"46,XY,?dup(20)(q11.2q11.2)[10]/46,XY[10]"
9199,"47,XY,+mar[20]"
9204,"46,XY,?dup(20)(q11.2q11.2)[8]/46,XY[12]"
9211,"46,XY,?dup(20)(q11.2q11.2)[14]/46,XY[6]"
9212,"46,XY,?dup(20)(q11.2q11.2)[12]/46,XY[7]"
9213,"46,XY,?dup(20)(q11.2q11.2)[8]/46,XY[12]"
9335,"46,XY,?dup(20)(q11.2q11.2)[2]/46,XY[3]"
9337,"46,XY,?dup(20)(q11.2q11.2)[3]/46,XY[17]"
9355,"46,XY,?dup(20)(q11.2q11.2)[6]/46,XY[13]"
9362,"45,X[20]"
9394,"46,XY,?dup(20)(q11.2q11.2)[5]/46,XY[14]"
9396,"46,XX,?dup(20)(q11.2q11.2)[10]/46,XX[10]"
9419,"46,XX,add(18)(p?11.3)[19]"
9530,"46,XX,?dup(20)(q11.2q11.2)[8]/46,XX[18]"
9532,"46,XX,?dup(20)(q11.2q11.2)[9]/46,XX[14]"
9536,"46,XY,dup(1)(p?32.1p?34.3)[20]"
9537,"46,XY,dup(1)(p?32.1p?34.3)[19]"
9539,"46,XY,dup(1)(p?32.1p?34.3)[20]"
9545,"46,XX,?dup(20)(q11.2q11.2)[7]/46,XX[13]"
9547,"46,XX,?dup(20)(q11.2q11.2)[13]/46,XX[7]"
9646,"46,XY,dup(1)(p?32.1p?34.3)[20]"
9648,"46,XY,dup(1)(p?32.1p?34.3)[20]"
9672,"46,XX,?dup(20)(q11.2q11.2)[6]/46,XX[14]"
9721,"46,XX,?dup(20)(q11.2q11.2)[6]/46,XX[14]"
9730,"46,XX,?dup(20)(q11.2q11.2)[8]/46,XX[15]"
9731,"45,X[20]"
9767,"45,X[20]"
9771,"46,XX,?dup(20)(q11.2q11.2)[13]/46,XX[7]"
9784,"46,XY,t(11;17)(q?14;q21)[3]/46,XY[17]"
9795,"46,XX,?dup(20)(q11.2q11.2)[20]"
9802,"46,XY,?dup(20)(q11.2q11.2)[8]/46,XY[12]"
9811,"46,XY,dup(1)(p?32.1p?34.3)[20]"
9812,"46,XY,dup(1)(p?32.1p?34.3)[20]"
9814,"46,XY,dup(1)(p?32.1p?34.3)[20]"
9851,"46,XY[5]/46,XX[15]"
9969,"46,XX,?dup(20)(q11.2q11.2)[8]/46,XX[30]"
9970,"46,XX,?dup(20)(q11.2q11.2)[7]/46,XX[13]"
9971,"46,XY,?del(6)(p23)[8]/46,XY[31]"
9977,"46,XY,t(1;16)(p22;q12-13)[5]/46,XY[15]"
10029,"46,XX,?dup(20)(q11.2q11.2)[6]/46,XX[16]"
10030,"46,XX,?dup(20)(q11.2q11.2)[4]/46,XX[35]"
10074,"46,XX,?dup(20)(q11.2q11.2)[7]/46,XX[13]"
10129,"46,XX,?dup(20)(q11.2q11.2)[3]/46,XX[17]"
10178,"45,X"
10206,"46,XX,?dup(20)(q11.2q11.2)[5]/46,XX[17]"
10245,"46,XX,der(10)ins(10;?)(q24;?)[20]"
10257,"45,X"
10416,"46,XY,t(1;16)(p22;q12-13)[5]/46,XY[15]"
10544,"47,XY,+mar[10]/46,XY[9]"
10675,"92,XXXX[19]/46,XX[1]"
10735,"92,XXXX[18]46,XX"
10736,"92,XXXX[13]/91,XXXX,-7[3]/93,XXXX,+20[2]93,XXXX,+22"
10841,"46,XY,?dup(20)(q11.2q11.2)[4]/46,XY[16]"
10953,"47,XY,+mar[15]/46,XY[5]"
11523,"46,XY,?dup(20)(q11.2q11.2)[4]/46,XY[16]"
11564,"46,XY47,XY,+mar"
11828,"46,XY47,XY,+mar"
12014,"46,XY,der(3)ins(3;?)(p13;?)[20]"
12236,"47,XXY[20]"
12301,"46,XX[11]/46,XY[9]"
12518,"46,XY,?dup(20)(q11.2q11.2)[8]/46,XY[12]"
12519,"46,XY,?dup(20)(q11.2q11.2)[5]/46,XY[15]"
13075,"46,XY[19]/46,XX[1]"
13400,"46,XX[13]/46,XY[7]"
13500,"46,XY[18]/46,XX[1]"
13504,"47,XX,+mar[20]"
13505,"47,XX,+mar[15]/46,XX[5]"
13688,"46,XY,?dup(20)(q11.2q11.2)[3]/46,XY[17]"
13689,"47,XX,+mar[17]/46,XX[3]"
13690,"47,XX,+mar[13]/48,XX,+mar1,+mar2[2]/46,XX[5]"
13692,"47,XX,+mar[18]/46,XX[2]"
13718,"46,XX,der(4)ins(4;?)(q21;?)[20]"
13719,"46,XX,der(4)ins(4;?)(q21;?)[20]"
13790,"47,XY,+mar[7]/46,XY[13]"
13834,"47,XX,+mar[8]/48,XX,+marx2[4]/46,XX[7]"
13961,"45,X"
14122,"46,XX[12]/46,XY[7]"
14162,"45,X"
14209,"46,XX[17]/46,XY[3]"
14344,"45,X[20]"
14372,"45,X[19]"
14503,"45,X[20]"
14598,"45,X[20]"
14693,"45,X[20]"
14694,"46,XX[12]/46,XY[8]"
14812,"46,XY[15]/46,XX[5]"
14866,"45,X[20]"
14878,"46,XX[13]/46,XY[7]"
